…
## Simplify variables:

```r
# Property type

## what are the most frequent types
listings_wip %>% 
  count(property_type, sort = TRUE) 
```

```
## # A tibble: 37 x 2
##    property_type          n
##    <chr>              <int>
##  1 Apartment          13545
##  2 House               3289
##  3 Condominium         1577
##  4 Loft                1120
##  5 Guest suite          571
##  6 Serviced apartment   369
##  7 Guesthouse           202
##  8 Boutique hotel       195
##  9 Hostel               177
## 10 Bed and breakfast    174
## # … with 27 more rows
```
…
# check if simplification worked
listings_wip %>%
  count(property_type, prop_type_simplified) %>%
  arrange(desc(n))  
```

```
## # A tibble: 37 x 3
##    property_type      prop_type_simplified     n
##    <chr>              <chr>                <int>
##  1 Apartment          Apartment            13545
##  2 House              House                 3289
##  3 Condominium        Condominium           1577
##  4 Loft               Loft                  1120
##  5 Guest suite        Other                  571
##  6 Serviced apartment Other                  369
##  7 Guesthouse         Other                  202
##  8 Boutique hotel     Other                  195
##  9 Hostel             Other                  177
## 10 Bed and breakfast  Other                  174
## # … with 27 more rows
```
…
